Chapter 1 The Targeted Learning Roadmap | The tlverse Software Ecosystem for Causal Inference
…
combined water, sanitation, handwashing, and nutrition.

In the workshop, we concentrate on child growth (size for age) as the outcome of
interest. For referene, this trial was registered with ClinicalTrials.gov as
NCT01590095.

library(here)
library(tidyverse)

# read in data
dat <- read_csv(here("data", "washb_data.csv"))
dat

# A tibble: 4,695 x 28
     whz tr    fracode month  aged sex   momage momedu momheight hfiacat Nlt18
   <dbl> <chr> <chr>   <dbl> <dbl> <chr>  <dbl> <chr>      <dbl> <chr>   <dbl>
 1  0    Cont… N05265      9   268 male      30 Prima…      146. Food S…     3
 2 -1.16 Cont… N05265      9   286 male      25 Prima…      149. Modera…     2
 3 -1.05 Cont… N08002      9   264 male      25 Prima…      152. Food S…     1
 4 -1.26 Cont… N08002      9   252 fema…     28 Prima…      140. Food S…     3
 5 -0.59 Cont… N06531      9   336 fema…     19 Secon…      151. Food S…     2
 6 -0.51 Cont… N06531      9   304 male      20 Secon…      154. Severe…     0
 7 -2.46 Cont… N08002      9   336 fema…     19 Prima…      151. Food S…     2
 8 -0.6  Cont… N06528      9   312 fema…     25 No ed…      142. Food S…     2
 9 -0.23 Cont… N06528      9   322 male      30 Secon…      153. Food S…     1
10 -0.14 Cont… N06453      9   376 male      30 No ed…      156. Modera…     2
# … with 4,685 more rows, and 17 more variables: Ncomp <dbl>, watmin <dbl>,
#   elec <dbl>, floor <dbl>, walls <dbl>, roof <dbl>, asset_wardrobe <dbl>,
#   asset_table <dbl>, asset_chair <dbl>, asset_khat <dbl>, asset_chouki <dbl>,
#   asset_tv <dbl>, asset_refrig <dbl>, asset_bike <dbl>, asset_moto <dbl>,
#   asset_sewmach <dbl>, asset_mobile <dbl>
…
